…
``` r
# since it doesnt make NAs clear though:
sum(is.na((births))) # know I have 231 missing values
```

    ## [1] 231

``` r
births[!complete.cases(births), ] # returns 206 rows, so at least 2 missing values
```

    ## # A tibble: 206 × 13
    ##     fage  mage mature     weeks premie visits gained weight lowbirthweight sex  
    ##    <int> <dbl> <chr>      <dbl> <chr>   <dbl>  <dbl>  <dbl> <chr>          <chr>
    ##  1    NA    16 younger m…    38 full …     NA     29   6.19 not low        male 
    ##  2    28    31 younger m…    39 full …     15     NA   8.2  not low        male 
    ##  3    32    29 younger m…    40 full …     15     NA   8.54 not low        fema…
    ##  4    29    23 younger m…    41 full …     NA     20   8.31 not low        fema…
    ##  5    NA    32 younger m…    40 full …      2     35   6.96 not low        male 
    ##  6    32    36 mature mom    39 full …     NA     36   6.94 not low        fema…
    ##  7    NA    33 younger m…    40 full …     17     12   6.93 not low        male 
    ##  8    32    26 younger m…    40 full …     NA     23   7.72 not low        fema…
    ##  9    NA    22 younger m…    37 full …      0      7   5.44 low            male 
    ## 10    NA    25 younger m…    40 full …     10     34   7.97 not low        fema…
    ## # ℹ 196 more rows
    ## # ℹ 3 more variables: habit <chr>, marital <chr>, whitemom <chr>
…
